ISSS608-VAA - Untitled
…
# 给每个数据框添加来源标识，并使用style列
nodes_Person <- nodes_Person %>%
  mutate(style = "Person")

nodes_Company <- nodes_Company %>%
  mutate(style = "Company")

# 合并数据框
node_file <- bind_rows(nodes_Person, nodes_Company)

# 查看合并后的数据框
print(node_file)

# A tibble: 60,520 × 3
   node_type     node_id         style 
   <chr>         <chr>           <chr> 
 1 Entity.Person Laura Newman    Person
 2 Entity.Person Jillian Morales Person
 3 Entity.Person Anna Bailey     Person
 4 Entity.Person Dawn King       Person
 5 Entity.Person Elizabeth Bell  Person
 6 Entity.Person Rose Whitney    Person
 7 Entity.Person Craig Holloway  Person
 8 Entity.Person Daniel Marquez  Person
 9 Entity.Person Kayla Boone     Person
10 Entity.Person Eric Montes     Person
# ℹ 60,510 more rows
…
# 将 mc3_source_target 和 node_file 通过 source 进行左连接
result <- mc3_source_target %>%
  left_join(node_file, by = c("source" = "node_id"))

# 删除包含任意 NA 值的行
result <- result %>%
  drop_na()

# 查看结果数据框
print(result)

# A tibble: 75,727 × 4
   source                         target                        node_type  style
   <chr>                          <chr>                         <chr>      <chr>
 1 Avery Inc                      Allen, Nichols and Thompson   Entity.Or… Comp…
 2 Berger-Hayes                   Jensen, Morris and Downs      Entity.Or… Comp…
 3 Bowers Group                   Barnett Inc                   Entity.Or… Comp…
 4 Bowman-Howe                    Bennett Ltd                   Entity.Or… Comp…
 5 Boyd and Sons                  Armstrong, Bennett and Deleon Entity.Or… Comp…
 6 Brown-Johnson                  Alexander-Wagner              Entity.Or… Comp…
 7 Burke, Hernandez and Alexander Becker-Mckinney               Entity.Or… Comp…
 8 Cain, Rodriguez and Gonzales   Beck-Green                    Entity.Or… Comp…
 9 Choi, Ortiz and Goodwin        Barton, King and Hall         Entity.Or… Comp…
10 Cochran Ltd                    Crosby Ltd                    Entity.Or… Comp…
# ℹ 75,717 more rows
…
# 查看新建的数据框
print(mc3_source_target)

# A tibble: 75,817 × 2
   source                         target                       
   <chr>                          <chr>                        
 1 Avery Inc                      Allen, Nichols and Thompson  
 2 Berger-Hayes                   Jensen, Morris and Downs     
 3 Bowers Group                   Barnett Inc                  
 4 Bowman-Howe                    Bennett Ltd                  
 5 Boyd and Sons                  Armstrong, Bennett and Deleon
 6 Brown-Johnson                  Alexander-Wagner             
 7 Burke, Hernandez and Alexander Becker-Mckinney              
 8 Cain, Rodriguez and Gonzales   Beck-Green                   
 9 Choi, Ortiz and Goodwin        Barton, King and Hall        
10 Cochran Ltd                    Crosby Ltd                   
# ℹ 75,807 more rows
…
# 将 mc3_source_target 和 node_file 通过 source 进行左连接
result <- mc3_source_target %>%
  left_join(node_file, by = c("source" = "node_id"))

# 删除包含任意 NA 值的行
result <- result %>%
  drop_na()

# 查看结果数据框
print(result)

# A tibble: 75,817 × 4
   source                         target                        node_type  style
   <chr>                          <chr>                         <chr>      <chr>
 1 Avery Inc                      Allen, Nichols and Thompson   Entity.Or… Comp…
 2 Berger-Hayes                   Jensen, Morris and Downs      Entity.Or… Comp…
 3 Bowers Group                   Barnett Inc                   Entity.Or… Comp…
 4 Bowman-Howe                    Bennett Ltd                   Entity.Or… Comp…
 5 Boyd and Sons                  Armstrong, Bennett and Deleon Entity.Or… Comp…
 6 Brown-Johnson                  Alexander-Wagner              Entity.Or… Comp…
 7 Burke, Hernandez and Alexander Becker-Mckinney               Entity.Or… Comp…
 8 Cain, Rodriguez and Gonzales   Beck-Green                    Entity.Or… Comp…
 9 Choi, Ortiz and Goodwin        Barton, King and Hall         Entity.Or… Comp…
10 Cochran Ltd                    Crosby Ltd                    Entity.Or… Comp…
# ℹ 75,807 more rows
…
