ISSS608-VAA - Take-home Exercise 3:Mini-Challenge 3
…
nodes_Person <- nodes_Person %>%
  mutate(style = "Person")

nodes_Company <- nodes_Company %>%
  mutate(style = "Company")

node_file <- bind_rows(nodes_Person, nodes_Company)

print(node_file)

# A tibble: 60,520 × 3
   node_type     node_id         style 
   <chr>         <chr>           <chr> 
 1 Entity.Person Laura Newman    Person
 2 Entity.Person Jillian Morales Person
 3 Entity.Person Anna Bailey     Person
 4 Entity.Person Dawn King       Person
 5 Entity.Person Elizabeth Bell  Person
 6 Entity.Person Rose Whitney    Person
 7 Entity.Person Craig Holloway  Person
 8 Entity.Person Daniel Marquez  Person
 9 Entity.Person Kayla Boone     Person
10 Entity.Person Eric Montes     Person
# ℹ 60,510 more rows
…
result <- mc3_source_target %>%
  left_join(node_file, by = c("source" = "node_id"))

result <- result %>%
  drop_na()

print(result)

# A tibble: 75,727 × 4
   source                         target                        node_type  style
   <chr>                          <chr>                         <chr>      <chr>
 1 Avery Inc                      Allen, Nichols and Thompson   Entity.Or… Comp…
 2 Berger-Hayes                   Jensen, Morris and Downs      Entity.Or… Comp…
 3 Bowers Group                   Barnett Inc                   Entity.Or… Comp…
 4 Bowman-Howe                    Bennett Ltd                   Entity.Or… Comp…
 5 Boyd and Sons                  Armstrong, Bennett and Deleon Entity.Or… Comp…
 6 Brown-Johnson                  Alexander-Wagner              Entity.Or… Comp…
 7 Burke, Hernandez and Alexander Becker-Mckinney               Entity.Or… Comp…
 8 Cain, Rodriguez and Gonzales   Beck-Green                    Entity.Or… Comp…
 9 Choi, Ortiz and Goodwin        Barton, King and Hall         Entity.Or… Comp…
10 Cochran Ltd                    Crosby Ltd                    Entity.Or… Comp…
# ℹ 75,717 more rows
…
